{
    "priority": 0,
    "request": {
        "method": "POST",
        "url": "/auth/login",
        "bodyPatterns": [{
            "contains" : "id=999999&pass=admin"
        }]
    },
    "response": {
        "status": 200,
        "headers": {
            "Content-Type": "application/json"
        },
        "bodyFileName": "loginapi.ok.admin.json"
    }
}